  [
   
    {"accountName": "Teezle"},
   {"accountName": "Rugged Telemetry"},
   {"accountName": "Vega Probe"},
   {"accountName": "Tank Demo I"},
   {"accountName": "Country Of Alpine"},
   {"accountName": "Omnitrale"},
   {"accountName": "Aveng Africa Ltd"},
   {"accountName": "Aveng_TrompsBurg"},
   {"accountName": "Aveng_VentersBurg"},
   {"accountName": "Tau Pele"}


    ]
