{
  "data":{
    "list":[
      {"device": "x0a1000013cf9ef4 ",
        "msgGenTime":"04/09/2018 02:44 PM",
        "rawMessage":"Decode Msg1"

      },
      {"device": "x0a1000013cf9ef4 ",
        "msgGenTime":"04/09/2018 02:44 PM",
        "rawMessage":"Decode Msg2"

      },
      {"device": "x0a1000013cf9ef4 ",
        "msgGenTime":"04/09/2018 02:44 PM",
        "rawMessage":"Decode Msg3"

      },
      {"device": "x0a1000013cf9ef4 ",
        "msgGenTime":"04/09/2018 02:44 PM",
        "rawMessage":"Decode Msg4"

      },
      {"device": "x0a1000013cf9ef4 ",
        "msgGenTime":"04/09/2018 02:44 PM",
        "rawMessage":"Decode Msg5"

      },
      {"device": "x0a1000013cf9ef4 ",
        "msgGenTime":"04/09/2018 02:44 PM",
        "rawMessage":"Decode Msg6"

      },
      {"device": "x0a1000013cf9ef4 ",
        "msgGenTime":"04/09/2018 02:44 PM",
        "rawMessage":"Decode Msg7"

      },
      {"device": "x0a1000013cf9ef4 ",
        "msgGenTime":"04/09/2018 02:44 PM",
        "rawMessage":"Decode Msg8"

      },
      {"device": "x0a1000013cf9ef4 ",
        "msgGenTime":"04/09/2018 02:44 PM",
        "rawMessage":"Decode Msg9"

      },
      {"device": "x0a1000013cf9ef4 ",
        "msgGenTime":"04/09/2018 02:44 PM",
        "rawMessage":"Decode Msg10"

      }

    ],
    "limit":10,
    "offset":0,
    "count":4110
  },
  "status":true,
  "error":{

  }
}