[{
    "_id": "5ac3110f5cea323ee6c7d9c8",
    "name": "Hyde Schmidt",
    "gender": "male",
    "email": "hydeschmidt@nixelt.com",
    "phone": "+1 (888) 572-3690",
    "registered": "2014-10-14T12:01:33 -06:-30"
  },
  {
    "_id": "5ac3110fc25433a653f74ced",
    "name": "Lawson Newton",
    "gender": "male",
    "email": "lawsonnewton@nixelt.com",
    "phone": "+1 (974) 454-3022",
    "registered": "2016-11-07T11:13:11 -06:-30"
  },
  {
    "_id": "5ac3110fa188c1785a026d0a",
    "name": "Ilene Nolan",
    "gender": "female",
    "email": "ilenenolan@nixelt.com",
    "phone": "+1 (828) 450-3085",
    "registered": "2014-07-18T09:29:05 -06:-30"
  },
  {
    "_id": "5ac3110fc152000aa5840d41",
    "name": "Gina Houston",
    "gender": "female",
    "email": "ginahouston@nixelt.com",
    "phone": "+1 (998) 517-3403",
    "registered": "2016-03-08T10:26:27 -06:-30"
  },
  {
    "_id": "5ac3110f35656c5fa13f9e9b",
    "name": "Barton Andrews",
    "gender": "male",
    "email": "bartonandrews@nixelt.com",
    "phone": "+1 (845) 496-3261",
    "registered": "2015-08-23T05:45:33 -06:-30"
  },
  {
    "_id": "5ac3110feed53a3a93a29a72",
    "name": "James Holden",
    "gender": "male",
    "email": "jamesholden@nixelt.com",
    "phone": "+1 (882) 521-2452",
    "registered": "2014-11-30T05:18:56 -06:-30"
  },
  {
    "_id": "5ac3110f42ae17fdb0a701e2",
    "name": "Combs Morrow",
    "gender": "male",
    "email": "combsmorrow@nixelt.com",
    "phone": "+1 (981) 438-2901",
    "registered": "2017-05-13T04:21:48 -06:-30"
  }
]