{
  "data":{
    "list":[
      {"device": "x0a1000013cf9ef4 ",
        "msgGenTime":"04/09/2018 02:44 PM",
        "rawMessage":"Raw Msg1"

      },
      {"device": "x0a1000013cf9ef4 ",
        "msgGenTime":"04/09/2018 02:44 PM",
        "rawMessage":"Raw Msg2"

      },
      {"device": "x0a1000013cf9ef4 ",
        "msgGenTime":"04/09/2018 02:44 PM",
        "rawMessage":"Raw Msg3"

      },
      {"device": "x0a1000013cf9ef4 ",
        "msgGenTime":"04/09/2018 02:44 PM",
        "rawMessage":"Raw Msg4"

      },
      {"device": "x0a1000013cf9ef4 ",
        "msgGenTime":"04/09/2018 02:44 PM",
        "rawMessage":"Raw Msg5"

      },
      {"device": "x0a1000013cf9ef4 ",
        "msgGenTime":"04/09/2018 02:44 PM",
        "rawMessage":"Raw Msg6"

      },
      {"device": "x0a1000013cf9ef4 ",
        "msgGenTime":"04/09/2018 02:44 PM",
        "rawMessage":"Raw Msg7"

      },
      {"device": "x0a1000013cf9ef4 ",
        "msgGenTime":"04/09/2018 02:44 PM",
        "rawMessage":"Raw Msg8"

      },
      {"device": "x0a1000013cf9ef4 ",
        "msgGenTime":"04/09/2018 02:44 PM",
        "rawMessage":"Raw Msg9"

      },
      {"device": "x0a1000013cf9ef4 ",
        "msgGenTime":"04/09/2018 02:44 PM",
        "rawMessage":"Raw Msg10"

      }

    ],
    "limit":10,
    "offset":0,
    "count":4110
  },
  "status":true,
  "error":{

  }
}