{
  "data":{
    "list":[
      {
        "_id": "59f16517f477cd1c12000d2a",
        "account": "5991d2fc155aab525b000118",
        "assetName": "TP_Static_c",
        "assetShape": "52f3173e61e2dbdc4bd4a8e2",
        "breadthUnit": "",
        "createdTime": 1508992279000,
        "createdVia": "message",
        "currentTankLevel": 4301.09,
        "currentTankLevelPercentage": 91.18,
        "deleted": false,
         "temperature" : 30 ,
          "battery": 6.2,
"pressure" : 28.9,
"sensorReading" : 213,

"faultCode" :174 ,
"faultSource" : "High Level Alert",
        "device": "59f16517159c199a0ea7bd7a",
        "diameterInInches": 90.55122999999999,
        "diameterUnit": "inches",
        "dutyStatus": "",
        "event": "",
        "flip": false,
        "heightInInches": 218.110354,
        "heightUnit": "meters",

        "ignitionState": "",
        "lengthUnit": "",
        "location": {
          "Lat": -31.363483333333335,
          "Lon": 27.886383333333335,
          "latitude": -31.363483333333335,
          "longitude": 27.886383333333335,
          "address": {
            "status": true,
            "street": "Unnamed Road",
            "state": "Eastern Cape",
            "stateShortName": "Eastern Cape",
            "country": "South Africa"
          }
        },
        "material": "52f3173761e2dbdc4bd4a8e0",
        "messageTimeMillis": 1522745557712,
        "modemType": "IDP-782",
        "reasonCodeDesc": "PeriodicReport",
        "reportingStatus": "NON_REPORTING",
        "reportingStatusCode": "6002",
        "reportingStatusObj": {
          "location": {
            "Lat": -25.886333333333333,
            "Lon": 28.125883333333334,
            "latitude": -25.886333333333333,
            "longitude": 28.125883333333334,
            "address": {
              "status": true
            }
          },
          "latitudeDecoded": -25.886333333333333,
          "longitudeDecoded": 28.125883333333334,
          "geofenceObject": null,
          "eventId": "schedule",
          "reasonCodeDesc": "PeriodicReport",
          "lastReportedTime": 1514375770001
        },
        "tankOffsetUnit": "meters",
        "totalVolume": 6081.33,
        "tripStatus": "",
        "updatedTime": 1522745558000
      },
      {
        "_id": "59f163baf477cd1c1200036c",
        "account": "5912deb440fb51b74d0001c4",
        "assetName": "A_VB_Bowser1",
        "assetShape": "52f3173e61e2dbdc4bd4a8e2",
        "breadthUnit": "",
        "createdTime": 1508991930000,
        "createdVia": "message",
        "currentTankLevel": 0,
        "currentTankLevelPercentage": 0,
        "deleted": false,
"temperature" : 30 ,
"battery": 6.2,
"pressure" : 28.9,
"sensorReading" : 213,

"faultCode" :174 ,
"faultSource" : "High Level Alert",
        "device": "59f163ba159c199a0ea7bd6f",
        "diameterUnit": "inches",
        "dutyStatus": "",
        "event": "",
        "flip": false,
        "heightUnit": "inches",
        "ignitionState": "",
        "lengthUnit": "",
        "location": null,
        "material": "52f3173761e2dbdc4bd4a8e1",
        "messageTimeMillis": 1515994827030,
        "modemType": "IDP-782",
        "reasonCodeDesc": "UNKNOWN",
        "reportingStatus": "NON_REPORTING",
        "reportingStatusCode": "6002",
        "tankOffsetUnit": "inches",
        "tripStatus": "",
        "updatedTime": 1515994827000
      },
      {
        "_id": "59f1637ff477cd1c12000014",
        "account": "5991d2fc155aab525b000118",
        "assetName": "TP_Bowser_1",
        "assetShape": "52f3173e61e2dbdc4bd4a8e2",
        "breadthUnit": "",
        "createdTime": 1508991871000,
        "createdVia": "message",
        "currentTankLevel": 2397.51,
        "currentTankLevelPercentage": 32.51,
        "deleted": false,
"temperature" : 30 ,
"battery": 6.2,
"pressure" : 28.9,
"sensorReading" : 213,

"temperature" : 30 ,

"faultCode" :174 ,
"faultSource" : "High Level Alert",
        "device": "59f1637f159c199a0ea7bd65",
        "diameterUnit": "inches",
        "dutyStatus": "",
        "event": "",
        "flip": false,
        "heightUnit": "meters",
        "ignitionState": "",
        "lengthUnit": "",
        "location": {
          "Lat": -31.363366666666668,
          "Lon": 27.886633333333332,
          "latitude": -31.363366666666668,
          "longitude": 27.886633333333332,
          "address": {
            "status": true,
            "street": "Unnamed Road",
            "state": "Eastern Cape",
            "stateShortName": "Eastern Cape",
            "country": "South Africa"
          }
        },
        "material": "5a01aec7da2b3675120006c9",
        "messageTimeMillis": 1522741057680,
        "modemType": "IDP-782",
        "reasonCodeDesc": "PeriodicReport",
        "reportingStatus": "NON_REPORTING",
        "reportingStatusCode": "6002",
        "reportingStatusObj": {
          "location": null,
          "latitudeDecoded": -31.364116666666668,
          "longitudeDecoded": 27.88675,
          "geofenceObject": null,
          "eventId": "schedule",
          "reasonCodeDesc": "UNKNOWN",
          "lastReportedTime": 1514382970113
        },
        "tankOffsetUnit": "meters",
        "tripStatus": "",
        "updatedTime": 1522741058000
      },
      {
        "_id": "59f1637ff477cd1c12000010",
        "account": "5991d2fc155aab525b000118",
        "assetName": "TP_Static_B",
        "assetShape": "52f3173e61e2dbdc4bd4a8e2",
        "breadthUnit": "",
        "createdTime": 1508991871000,
        "createdVia": "message",
        "currentTankLevel": 23250,
        "currentTankLevelPercentage": 96.57,
        "deleted": false,
"temperature" : 30 ,
"battery": 6.2,
"pressure" : 28.9,
"sensorReading" : 213,

"faultCode" :174 ,
"faultSource" : "High Level Alert",
        "device": "59f1637f159c199a0ea7bd60",
        "diameterInInches": 90.55122999999999,
        "diameterUnit": "meters",
        "dutyStatus": "",
        "event": "",
        "flip": false,
        "heightInInches": 218.110354,
        "heightUnit": "meters",
        "ignitionState": "",
        "lengthUnit": "",
        "location": {
          "Lat": -31.363466666666667,
          "Lon": 27.8864,
          "latitude": -31.363466666666667,
          "longitude": 27.8864,
          "address": {
            "status": true,
            "street": "Unnamed Road",
            "state": "Eastern Cape",
            "stateShortName": "Eastern Cape",
            "country": "South Africa"
          }
        },
        "material": "52f3173761e2dbdc4bd4a8e0",
        "messageTimeMillis": 1522747357835,
        "modemType": "IDP-782",
        "reasonCodeDesc": "PeriodicReport",
        "reportingStatus": "NON_REPORTING",
        "reportingStatusCode": "6002",
        "reportingStatusObj": {
          "location": {
            "Lat": -31.363483333333335,
            "Lon": 27.886433333333333,
            "latitude": -31.363483333333335,
            "longitude": 27.886433333333333,
            "address": {
              "status": true,
              "street": "Unnamed Road",
              "state": "Eastern Cape",
              "stateShortName": "Eastern Cape",
              "country": "South Africa"
            }
          },
          "latitudeDecoded": -31.363483333333335,
          "longitudeDecoded": 27.886433333333333,
          "geofenceObject": null,
          "eventId": "schedule",
          "reasonCodeDesc": "PeriodicReport",
          "lastReportedTime": 1514382969976
        },
        "sensorMaxPsi": 23,
        "specificGravity": 2.289,
        "tankOffsetInInches": 0,
        "tankOffsetUnit": "meters",
        "totalVolume": 6081.33,
        "tripStatus": "",
        "updatedTime": 1522747358000
      },
      {
        "_id": "59f1637ff477cd1c1200001c",
        "account": "5991d2fc155aab525b000118",
        "assetName": "TP_Static_A",
        "assetShape": "52f3173e61e2dbdc4bd4a8e2",
        "breadthUnit": "",
        "createdTime": 1508991871000,
        "createdVia": "message",
        "currentTankLevel": 16863.46,
        "currentTankLevelPercentage": 67.46,
        "deleted": false,
"temperature" : 30 ,
"battery": 6.2,
"pressure" : 28.9,
"sensorReading" : 213,

"faultCode" :174 ,
"faultSource" : "High Level Alert",
        "device": "59f1637f159c199a0ea7bd6a",
        "diameterInInches": 90.55122999999999,
        "diameterUnit": "meters",
        "dutyStatus": "",
        "event": "",
        "flip": false,
        "heightInInches": 218.110354,
        "heightUnit": "meters",
        "ignitionState": "",
        "lengthUnit": "",
        "location": {
          "Lat": -31.363483333333335,
          "Lon": 27.886516666666665,
          "latitude": -31.363483333333335,
          "longitude": 27.886516666666665,
          "address": {
            "status": true,
            "street": "Unnamed Road",
            "state": "Eastern Cape",
            "stateShortName": "Eastern Cape",
            "country": "South Africa"
          }
        },
        "material": "52f3173761e2dbdc4bd4a8e0",
        "messageTimeMillis": 1522742857988,
        "modemType": "IDP-782",
        "reasonCodeDesc": "PeriodicReport",
        "reportingStatus": "NON_REPORTING",
        "reportingStatusCode": "6002",
        "reportingStatusObj": {
          "location": {
            "Lat": -31.3635,
            "Lon": 27.886516666666665,
            "latitude": -31.3635,
            "longitude": 27.886516666666665,
            "address": {
              "status": true,
              "street": "Unnamed Road",
              "state": "Eastern Cape",
              "stateShortName": "Eastern Cape",
              "country": "South Africa"
            }
          },
          "latitudeDecoded": -31.3635,
          "longitudeDecoded": 27.886516666666665,
          "geofenceObject": null,
          "eventId": "schedule",
          "reasonCodeDesc": "PeriodicReport",
          "lastReportedTime": 1514378469928
        },
        "sensorMaxPsi": 23,
        "specificGravity": 2.23,
        "tankOffsetInInches": 0,
        "tankOffsetUnit": "meters",
        "totalVolume": 6081.33,
        "tripStatus": "",
        "updatedTime": 1522742858000
      },
      {
        "_id": "59f1637ef477cd1c12000006",
        "account": "5912deb440fb51b74d0001c4",
        "assetName": "A_VB_Bowser2",
        "assetShape": "52f3173e61e2dbdc4bd4a8e2",
        "breadthUnit": "",
        "createdTime": 1508991870000,
        "createdVia": "message",
        "currentTankLevel": 20185088,
        "currentTankLevelPercentage": 0,
        "deleted": false,
"temperature" : 30 ,
"battery": 6.2,
"pressure" : 28.9,
"sensorReading" : 213,

"faultCode" :174 ,
"faultSource" : "High Level Alert",
        "device": "59f1637e159c199a0ea7bd56",
        "diameterUnit": "inches",
        "dutyStatus": "",
        "event": "",
        "flip": false,
        "heightUnit": "inches",
        "ignitionState": "",
        "lengthUnit": "",
        "location": {
          "Lat": -27.893433333333334,
          "Lon": 27.208616666666668,
          "latitude": -27.893433333333334,
          "longitude": 27.208616666666668,
          "address": {
            "status": true,
            "street": "N1",
            "state": "Free State",
            "stateShortName": "Free State",
            "country": "South Africa"
          }
        },
        "material": "52f3173761e2dbdc4bd4a8e1",
        "messageTimeMillis": 1518678555440,
        "modemType": "IDP-782",
        "reasonCodeDesc": "UNKNOWN",
        "reportingStatus": "NON_REPORTING",
        "reportingStatusCode": "6002",
        "reportingStatusObj": {
          "location": null,
          "latitudeDecoded": -27.893433333333334,
          "longitudeDecoded": 27.208616666666668,
          "geofenceObject": null,
          "eventId": "schedule",
          "reasonCodeDesc": "UNKNOWN",
          "lastReportedTime": 1518678555440
        },
        "tankOffsetUnit": "inches",
        "tripStatus": "",
        "updatedTime": 1518678555000
      },
      {
        "_id": "59f1637ef477cd1c1200000c",
        "account": "5912deb440fb51b74d0001c4",
        "assetName": "A_VB_Static_1",
        "assetShape": "52f3173e61e2dbdc4bd4a8e3",
        "breadthUnit": "inches",
        "createdTime": 1508991870000,
        "createdVia": "message",
        "currentTankLevel": 20316160,
        "currentTankLevelPercentage": 0,
        "deleted": false,
"temperature" : 30 ,
"battery": 6.2,
"pressure" : 28.9,
"sensorReading" : 213,

"faultCode" :174 ,
"faultSource" : "High Level Alert",
        "device": "59f1637e159c199a0ea7bd5b",
        "diameterUnit": "",
        "dutyStatus": "",
        "event": "",
        "flip": false,
        "heightUnit": "inches",
        "ignitionState": "",
        "lengthUnit": "inches",
        "location": {
          "Lat": -27.89515,
          "Lon": 27.20905,
          "latitude": -27.89515,
          "longitude": 27.20905,
          "address": {
            "status": true,
            "street": "N1",
            "state": "Free State",
            "stateShortName": "Free State",
            "country": "South Africa"
          }
        },
        "material": "52f3173761e2dbdc4bd4a8e1",
        "messageTimeMillis": 1522748258021,
        "modemType": "IDP-782",
        "reasonCodeDesc": "PeriodicReport",
        "reportingStatus": "NON_REPORTING",
        "reportingStatusCode": "6002",
        "reportingStatusObj": {
          "location": null,
          "latitudeDecoded": -27.895166666666668,
          "longitudeDecoded": 27.209033333333334,
          "geofenceObject": null,
          "eventId": "schedule",
          "reasonCodeDesc": "UNKNOWN",
          "lastReportedTime": 1514382969843
        },
        "tankOffsetUnit": "inches",
        "tripStatus": "",
        "updatedTime": 1522748258000
      },
      {
        "_id": "59f1637df477cd1c12000002",
        "account": "5991d2fc155aab525b000118",
        "assetName": "TP_Bowser_2",
        "assetShape": "52f3173e61e2dbdc4bd4a8e2",
        "breadthUnit": "",
        "createdTime": 1508991869000,
        "createdVia": "message",
        "currentTankLevel": 100,
        "currentTankLevelPercentage": 0,
        "deleted": false,
"temperature" : 30 ,
"battery": 6.2,
"pressure" : 28.9,
"sensorReading" : 213,

"faultCode" :174 ,
"faultSource" : "High Level Alert",
        "device": "59f1637d159c199a0ea7bd51",
        "diameterUnit": "inches",
        "dutyStatus": "",
        "event": "",
        "flip": false,
        "heightUnit": "inches",
        "ignitionState": "",
        "lengthUnit": "",
        "location": {
          "Lat": -31.417,
          "Lon": 27.497866666666667,
          "latitude": -31.417,
          "longitude": 27.497866666666667,
          "address": {
            "status": true,
            "street": "R56",
            "state": "Eastern Cape",
            "stateShortName": "Eastern Cape",
            "country": "South Africa"
          }
        },
        "material": "5a01aee2da2b3675120006cb",
        "messageTimeMillis": 1522748258283,
        "modemType": "IDP-782",
        "reasonCodeDesc": "UNKNOWN",
        "reportingStatus": "NON_REPORTING",
        "reportingStatusCode": "6002",
        "reportingStatusObj": {
          "location": null,
          "latitudeDecoded": -31.364233333333335,
          "longitudeDecoded": 27.886766666666666,
          "geofenceObject": null,
          "eventId": "schedule",
          "reasonCodeDesc": "UNKNOWN",
          "lastReportedTime": 1514383869886
        },
        "tankOffsetUnit": "inches",
        "tripStatus": "",
        "updatedTime": 1522748258000
      },
      {
        "_id": "58ec83c071074fbc4d000018",
        "account": "5912de8040fb51b74d0001c3",
        "assetName": "Trompsburg_Bowser",
        "assetShape": "52f3173e61e2dbdc4bd4a8e2",
        "breadthUnit": "",
        "createdTime": 1491895232000,
        "createdVia": "message",
        "defaultSettings": true,
        "deleted": false,
"temperature" : 30 ,
"battery": 6.2,
"pressure" : 28.9,
"sensorReading" : 213,

"faultCode" :174 ,
"faultSource" : "High Level Alert",
        "device": "58c82555ae2c65b998f06f58",
        "deviceType": "omnicom",
        "diameterInInches": 59.05515,
        "diameterUnit": "inches",
        "dutyStatus": "",
        "event": 0,
        "flip": false,
        "heightInInches": 0,
        "heightUnit": "",
        "ignitionState": "",
        "lastMaintMile": 0,
        "lengthUnit": "",
        "liters": 0,
        "maintAlertPercentile": 90,
        "maintDue": 600,
        "maintFlag": 1,
        "maintOverDue": 800,
        "material": "52f3173761e2dbdc4bd4a8e1",
        "maximumGallons": 2113.376,
        "maximumLevel": 4096,
        "maximumLiters": 31270,
        "messageTimeMillis": 1491895248206,
        "minimumGallons": 0,
        "minimumLevel": 0,
        "minimumLiters": 0,
        "modemType": "omnicom",
        "oneNValue": 7.63427734375,
        "reasonCodeDesc": "Sensor Readings",
        "reportingStatus": "NON_REPORTING",
        "reportingStatusCode": "6002",
        "reportingStatusObj": {
          "location": null,
          "latitudeDecoded": null,
          "longitudeDecoded": null,
          "geofenceObject": null,
          "eventId": 0,
          "reasonCodeDesc": "Sensor Readings",
          "lastReportedTime": 1491895248206
        },
        "sensorChoice": 1,
        "sensorMaxPsi": 15,
        "sensorReading": 0,
        "specificGravity": 1,
        "tankOffsetInInches": 0.12,
        "tankOffsetUnit": "meters",
        "totalVolume": 8260.658440000001,
        "tripStatus": "",
        "updatedTime": 1491895248000,
        "volumeUnit": "Gallons"
      },
      {
        "_id": "58ec83bf71074fbc4d000009",
        "account": "5912de8040fb51b74d0001c3",
        "assetName": "Trompsburg_Static_1",
        "assetShape": "52f3173e61e2dbdc4bd4a8e2",
        "breadthUnit": "",
        "createdTime": 1491895231000,
        "createdVia": "message",
        "defaultSettings": true,
        "deleted": false,
"temperature" : 30 ,
"battery": 6.2,
"pressure" : 28.9,
"sensorReading" : 213,

"faultCode" :174 ,
"faultSource" : "High Level Alert",
        "device": "58cace20159c199a0ea7b2a1",
        "deviceType": "omnicom",
        "diameterInInches": 98.42525,
        "diameterUnit": "inches",
        "dutyStatus": "",
        "event": "",
        "flip": false,
        "heightInInches": 0,
        "heightUnit": "",
        "ignitionState": "",
        "lastMaintMile": 0,
        "lengthUnit": "",
        "liters": 0,
        "maintAlertPercentile": 90,
        "maintDue": 600,
        "maintFlag": 1,
        "maintOverDue": 800,
        "material": "52f3173761e2dbdc4bd4a8e0",
        "maximumGallons": 6868.4734,
        "maximumLevel": 4096,
        "maximumLiters": 31270,
        "messageTimeMillis": 1510071963000,
        "minimumGallons": 0,
        "minimumLevel": 0,
        "minimumLiters": 0,
        "modemType": "omnicom",
        "oneNValue": 7.63427734375,
        "reasonCodeDesc": null,
        "reportingStatus": "NON_REPORTING",
        "reportingStatusCode": "6002",
        "reportingStatusObj": {
          "location": null,
          "latitudeDecoded": null,
          "longitudeDecoded": null,
          "geofenceObject": null,
          "eventId": 0,
          "reasonCodeDesc": "Sensor Readings",
          "lastReportedTime": 1510071963000
        },
        "sensorChoice": 1,
        "sensorMaxPsi": 1.01526,
        "sensorReading": 0,
        "specificGravity": 1,
        "tankOffsetInInches": 0,
        "tankOffsetUnit": "meters",
        "totalVolume": 8260.658440000001,
        "tripStatus": "",
        "updatedTime": 1510072044000,
        "volumeUnit": "Gallons"
      },
      {
        "_id": "58ec83be71074fbc4d000002",
        "account": "5912de8040fb51b74d0001c3",
        "assetName": "Trompsburg_Static_2",
        "assetShape": "52f3173e61e2dbdc4bd4a8e2",
        "breadthUnit": "",
        "createdTime": 1491895230000,
        "createdVia": "message",
        "defaultSettings": true,
        "deleted": false,
"temperature" : 30 ,
"battery": 6.2,
"pressure" : 28.9,
"sensorReading" : 213,

"faultCode" :174 ,
"faultSource" : "High Level Alert",
        "device": "58cace20159c199a0ea7b2a0",
        "deviceType": "omnicom",
        "diameterInInches": 98.42525,
        "diameterUnit": "inches",
        "dutyStatus": "",
        "event": "",
        "flip": false,
        "heightInInches": 0,
        "heightUnit": "",
        "ignitionState": "",
        "lastMaintMile": 0,
        "lengthUnit": "",
        "liters": 0,
        "maintAlertPercentile": 90,
        "maintDue": 600,
        "maintFlag": 1,
        "maintOverDue": 800,
        "material": "52f3173761e2dbdc4bd4a8e0",
        "maximumGallons": 6868.4734,
        "maximumLevel": 4096,
        "maximumLiters": 31270,
        "messageTimeMillis": 1510071932000,
        "minimumGallons": 0,
        "minimumLevel": 0,
        "minimumLiters": 0,
        "modemType": "omnicom",
        "oneNValue": 7.63427734375,
        "reasonCodeDesc": null,
        "reportingStatus": "NON_REPORTING",
        "reportingStatusCode": "6002",
        "reportingStatusObj": {
          "location": null,
          "latitudeDecoded": null,
          "longitudeDecoded": null,
          "geofenceObject": null,
          "eventId": 0,
          "reasonCodeDesc": "Sensor Readings",
          "lastReportedTime": 1510071932000
        },
        "sensorChoice": 1,
        "sensorMaxPsi": 1.01526,
        "sensorReading": 0,
        "specificGravity": 850,
        "tankOffsetInInches": 0,
        "tankOffsetUnit": "meters",
        "totalVolume": 8260.658440000001,
        "tripStatus": "",
        "updatedTime": 1510072044000,
        "volumeUnit": "Gallons"
      }
    ],
    "limit":10,
    "offset":0,
    "count":4120
  },
  "status":true,
  "error":{

  }
}